%YAML 1.1
%TAG !u! tag:unity3d.com,2011:
--- !u!114 &11400000
MonoBehaviour:
  m_ObjectHideFlags: 0
  m_CorrespondingSourceObject: {fileID: 0}
  m_PrefabInstance: {fileID: 0}
  m_PrefabAsset: {fileID: 0}
  m_GameObject: {fileID: 0}
  m_Enabled: 1
  m_EditorHideFlags: 0
  m_Script: {fileID: 11500000, guid: 01fc15c628fd34ab4b249174f2fd65ae, type: 3}
  m_Name: EditorUtilitiesSettings
  m_EditorClassIdentifier: 
  AppSettings: {fileID: 0}
  showBuild: 1
  showEditorState: 1
  showSceneShortcuts: 0
  showQuickShortcuts: 0
  showInfoSettings: 1
  _preloadScene: Assets/Scenes/_preload.unity
  launchSceneShortcuts:
  - Assets/Scenes/Menus/Menu.unity
  - Assets/Scenes/Menus/Credits.unity
  workingSceneShortcuts:
  - Assets/Scenes/Menus/Menu.unity
  - Assets/Scenes/Menus/Credits.unity
