%YAML 1.1
%TAG !u! tag:unity3d.com,2011:
--- !u!114 &11400000
MonoBehaviour:
  m_ObjectHideFlags: 0
  m_CorrespondingSourceObject: {fileID: 0}
  m_PrefabInstance: {fileID: 0}
  m_PrefabAsset: {fileID: 0}
  m_GameObject: {fileID: 0}
  m_Enabled: 1
  m_EditorHideFlags: 0
  m_Script: {fileID: 11500000, guid: d4a7855e1f492474d81a7f10e91f8ed9, type: 3}
  m_Name: UI_InGame_1Glory_01
  m_EditorClassIdentifier: 
  Button: {fileID: 21300000, guid: 78c4c1a2106e1a148b8f2846d981a344, type: 3}
  SmallButton: {fileID: 21300000, guid: fe687f1aac346be46b182fe980ad37fe, type: 3}
  Panel_Top: {fileID: 21300000, guid: 0a0249a0704c02b4bad6753824e9c01c, type: 3}
  Panel_Info: {fileID: 21300000, guid: 0a0249a0704c02b4bad6753824e9c01c, type: 3}
  Panel_Menu: {fileID: 21300000, guid: 0a0249a0704c02b4bad6753824e9c01c, type: 3}
  Demolish: {fileID: 21300000, guid: 0a0249a0704c02b4bad6753824e9c01c, type: 3}
