%YAML 1.1
%TAG !u! tag:unity3d.com,2011:
--- !u!114 &11400000
MonoBehaviour:
  m_ObjectHideFlags: 0
  m_CorrespondingSourceObject: {fileID: 0}
  m_PrefabInstance: {fileID: 0}
  m_PrefabAsset: {fileID: 0}
  m_GameObject: {fileID: 0}
  m_Enabled: 1
  m_EditorHideFlags: 0
  m_Script: {fileID: 11500000, guid: 0902e6d891709ec429342841e55d8ee6, type: 3}
  m_Name: Item_Stone_Base Sample_Tier0_Sprites
  m_EditorClassIdentifier: 
  Active: {fileID: 2800000, guid: a44aa7d74ea15ea4f90e373788d72e66, type: 3}
  InActive: {fileID: 2800000, guid: a44aa7d74ea15ea4f90e373788d72e66, type: 3}
  Producing: {fileID: 2800000, guid: a44aa7d74ea15ea4f90e373788d72e66, type: 3}
