%YAML 1.1
%TAG !u! tag:unity3d.com,2011:
--- !u!114 &11400000
MonoBehaviour:
  m_ObjectHideFlags: 0
  m_CorrespondingSourceObject: {fileID: 0}
  m_PrefabInstance: {fileID: 0}
  m_PrefabAsset: {fileID: 0}
  m_GameObject: {fileID: 0}
  m_Enabled: 1
  m_EditorHideFlags: 0
  m_Script: {fileID: 11500000, guid: ebc15c00eab7ea04cbd4b67dc0ab2a46, type: 3}
  m_Name: NodeSprites_PlaceHolders
  m_EditorClassIdentifier: 
  GroundDry: {fileID: 2800000, guid: d2b9585fc92f57c4fa3294fc1c5c632c, type: 3}
  GroundWater: {fileID: 2800000, guid: 92892e04f92db2143af29e69687c7940, type: 3}
  GroundFertility: {fileID: 2800000, guid: 4f2cd782ca791e44abf00d77da4f5400, type: 3}
  Vegetation: {fileID: 2800000, guid: 353b22e84628a7d46a0826ad547e41d4, type: 3}
  Pollution: {fileID: 2800000, guid: ab32dafbbf02cff49a21e95515108e7a, type: 3}
