%YAML 1.1
%TAG !u! tag:unity3d.com,2011:
--- !u!1045 &1
EditorBuildSettings:
  m_ObjectHideFlags: 0
  serializedVersion: 2
  m_Scenes:
  - enabled: 1
    path: Assets/Scenes/_persistantData.unity
    guid: 728243fe359cd984798dff53ee2c8aa0
  - enabled: 1
    path: Assets/Scenes/MainMenu.unity
    guid: 974651c109f874949b93af98551f0195
  - enabled: 1
    path: Assets/Scenes/Loader.unity
    guid: a7c5fed60c74ed14d8b9e0d8e5699e0d
  - enabled: 1
    path: Assets/Scenes/InGame.unity
    guid: 9fc0d4010bbf28b4594072e72b8655ab
  m_configObjects: {}
