%YAML 1.1
%TAG !u! tag:unity3d.com,2011:
--- !u!78 &1
TagManager:
  serializedVersion: 2
  tags:
  - Nodes
  - Invisible
  layers:
  - Default
  - TransparentFX
  - Ignore Raycast
  - 
  - Water
  - UI
  - 
  - 
  - PF_Obstacle
  - Invisible
  - 
  - 
  - 
  - 
  - 
  - 
  - 
  - 
  - 
  - 
  - Grid_Nodes
  - 
  - 
  - 
  - 
  - 
  - 
  - 
  - 
  - 
  - 
  - EditorOnly
  m_SortingLayers:
  - name: Default
    uniqueID: 0
    locked: 0
