<?xml version="1.0" encoding="UTF-8" standalone="no"?>
<graphml xmlns="http://graphml.graphdrawing.org/xmlns" xmlns:java="http://www.yworks.com/xml/yfiles-common/1.0/java" xmlns:sys="http://www.yworks.com/xml/yfiles-common/markup/primitives/2.0" xmlns:x="http://www.yworks.com/xml/yfiles-common/markup/2.0" xmlns:xsi="http://www.w3.org/2001/XMLSchema-instance" xmlns:y="http://www.yworks.com/xml/graphml" xmlns:yed="http://www.yworks.com/xml/yed/3" xsi:schemaLocation="http://graphml.graphdrawing.org/xmlns http://www.yworks.com/xml/schema/graphml/1.1/ygraphml.xsd">
  <!--Created by yEd 3.19-->
  <key attr.name="Description" attr.type="string" for="graph" id="d0"/>
  <key for="port" id="d1" yfiles.type="portgraphics"/>
  <key for="port" id="d2" yfiles.type="portgeometry"/>
  <key for="port" id="d3" yfiles.type="portuserdata"/>
  <key attr.name="url" attr.type="string" for="node" id="d4"/>
  <key attr.name="description" attr.type="string" for="node" id="d5"/>
  <key for="node" id="d6" yfiles.type="nodegraphics"/>
  <key for="graphml" id="d7" yfiles.type="resources"/>
  <key attr.name="url" attr.type="string" for="edge" id="d8"/>
  <key attr.name="description" attr.type="string" for="edge" id="d9"/>
  <key for="edge" id="d10" yfiles.type="edgegraphics"/>
  <graph edgedefault="directed" id="G">
    <data key="d0"/>
    <node id="n0">
      <data key="d6">
        <y:ImageNode>
          <y:Geometry height="16.0" width="16.0" x="1102.0" y="292.0"/>
          <y:Fill color="#CCCCFF" transparent="false"/>
          <y:BorderStyle color="#000000" type="line" width="1.0"/>
          <y:NodeLabel alignment="center" autoSizePolicy="content" fontFamily="Dialog" fontSize="12" fontStyle="plain" hasBackgroundColor="false" hasLineColor="false" hasText="false" height="4.0" horizontalTextPosition="center" iconTextGap="4" modelName="sandwich" modelPosition="s" textColor="#000000" verticalTextPosition="bottom" visible="true" width="4.0" x="6.0" y="20.0"/>
          <y:Image refid="1"/>
        </y:ImageNode>
      </data>
    </node>
    <node id="n1">
      <data key="d6">
        <y:ImageNode>
          <y:Geometry height="16.0" width="16.0" x="1132.0" y="292.0"/>
          <y:Fill color="#CCCCFF" transparent="false"/>
          <y:BorderStyle color="#000000" type="line" width="1.0"/>
          <y:NodeLabel alignment="center" autoSizePolicy="content" fontFamily="Dialog" fontSize="12" fontStyle="plain" hasBackgroundColor="false" hasLineColor="false" hasText="false" height="4.0" horizontalTextPosition="center" iconTextGap="4" modelName="sandwich" modelPosition="s" textColor="#000000" verticalTextPosition="bottom" visible="true" width="4.0" x="6.0" y="20.0"/>
          <y:Image refid="2"/>
        </y:ImageNode>
      </data>
    </node>
    <node id="n2">
      <data key="d6">
        <y:ImageNode>
          <y:Geometry height="16.0" width="16.0" x="1132.0" y="352.0"/>
          <y:Fill color="#CCCCFF" transparent="false"/>
          <y:BorderStyle color="#000000" type="line" width="1.0"/>
          <y:NodeLabel alignment="center" autoSizePolicy="content" fontFamily="Dialog" fontSize="12" fontStyle="plain" hasBackgroundColor="false" hasLineColor="false" hasText="false" height="4.0" horizontalTextPosition="center" iconTextGap="4" modelName="sandwich" modelPosition="s" textColor="#000000" verticalTextPosition="bottom" visible="true" width="4.0" x="6.0" y="20.0"/>
          <y:Image refid="3"/>
        </y:ImageNode>
      </data>
    </node>
    <node id="n3">
      <data key="d6">
        <y:ImageNode>
          <y:Geometry height="16.0" width="16.0" x="1132.0" y="411.99999999999994"/>
          <y:Fill color="#CCCCFF" transparent="false"/>
          <y:BorderStyle color="#000000" type="line" width="1.0"/>
          <y:NodeLabel alignment="center" autoSizePolicy="content" fontFamily="Dialog" fontSize="12" fontStyle="plain" hasBackgroundColor="false" hasLineColor="false" hasText="false" height="4.0" horizontalTextPosition="center" iconTextGap="4" modelName="sandwich" modelPosition="s" textColor="#000000" verticalTextPosition="bottom" visible="true" width="4.0" x="6.0" y="20.0"/>
          <y:Image refid="4"/>
        </y:ImageNode>
      </data>
    </node>
    <node id="n4">
      <data key="d6">
        <y:ImageNode>
          <y:Geometry height="8.0" width="8.0" x="1166.0" y="416.6414341119996"/>
          <y:Fill color="#CCCCFF" transparent="false"/>
          <y:BorderStyle color="#000000" type="line" width="1.0"/>
          <y:NodeLabel alignment="center" autoSizePolicy="content" fontFamily="Dialog" fontSize="12" fontStyle="plain" hasBackgroundColor="false" hasLineColor="false" hasText="false" height="4.0" horizontalTextPosition="center" iconTextGap="4" modelName="sandwich" modelPosition="s" textColor="#000000" verticalTextPosition="bottom" visible="true" width="4.0" x="2.0" y="12.0"/>
          <y:Image refid="5"/>
        </y:ImageNode>
      </data>
    </node>
    <node id="n5">
      <data key="d6">
        <y:ImageNode>
          <y:Geometry height="8.0" width="8.0" x="1166.0" y="296.0"/>
          <y:Fill color="#CCCCFF" transparent="false"/>
          <y:BorderStyle color="#000000" type="line" width="1.0"/>
          <y:NodeLabel alignment="center" autoSizePolicy="content" fontFamily="Dialog" fontSize="12" fontStyle="plain" hasBackgroundColor="false" hasLineColor="false" hasText="false" height="4.0" horizontalTextPosition="center" iconTextGap="4" modelName="sandwich" modelPosition="s" textColor="#000000" verticalTextPosition="bottom" visible="true" width="4.0" x="2.0" y="12.0"/>
          <y:Image refid="6"/>
        </y:ImageNode>
      </data>
    </node>
    <node id="n6">
      <data key="d6">
        <y:ImageNode>
          <y:Geometry height="8.0" width="8.0" x="1166.0" y="356.0"/>
          <y:Fill color="#CCCCFF" transparent="false"/>
          <y:BorderStyle color="#000000" type="line" width="1.0"/>
          <y:NodeLabel alignment="center" autoSizePolicy="content" fontFamily="Dialog" fontSize="12" fontStyle="plain" hasBackgroundColor="false" hasLineColor="false" hasText="false" height="4.0" horizontalTextPosition="center" iconTextGap="4" modelName="sandwich" modelPosition="s" textColor="#000000" verticalTextPosition="bottom" visible="true" width="4.0" x="2.0" y="12.0"/>
          <y:Image refid="7"/>
        </y:ImageNode>
      </data>
    </node>
    <node id="n7">
      <data key="d5"/>
      <data key="d6">
        <y:ImageNode>
          <y:Geometry height="8.0" width="8.0" x="1166.0" y="445.99999999999994"/>
          <y:Fill color="#CCCCFF" transparent="false"/>
          <y:BorderStyle color="#000000" type="line" width="1.0"/>
          <y:NodeLabel alignment="center" autoSizePolicy="content" fontFamily="Dialog" fontSize="12" fontStyle="plain" hasBackgroundColor="false" hasLineColor="false" hasText="false" height="4.0" horizontalTextPosition="center" iconTextGap="4" modelName="sandwich" modelPosition="s" textColor="#000000" verticalTextPosition="bottom" visible="true" width="4.0" x="2.0" y="12.0"/>
          <y:Image alphaImage="true" refid="8"/>
        </y:ImageNode>
      </data>
    </node>
    <node id="n8">
      <data key="d5"/>
      <data key="d6">
        <y:ImageNode>
          <y:Geometry height="8.0" width="8.0" x="1166.0" y="326.0"/>
          <y:Fill color="#CCCCFF" transparent="false"/>
          <y:BorderStyle color="#000000" type="line" width="1.0"/>
          <y:NodeLabel alignment="center" autoSizePolicy="content" fontFamily="Dialog" fontSize="12" fontStyle="plain" hasBackgroundColor="false" hasLineColor="false" hasText="false" height="4.0" horizontalTextPosition="center" iconTextGap="4" modelName="sandwich" modelPosition="s" textColor="#000000" verticalTextPosition="bottom" visible="true" width="4.0" x="2.0" y="12.0"/>
          <y:Image alphaImage="true" refid="9"/>
        </y:ImageNode>
      </data>
    </node>
    <node id="n9">
      <data key="d5"/>
      <data key="d6">
        <y:ImageNode>
          <y:Geometry height="8.0" width="8.0" x="1166.0" y="386.0"/>
          <y:Fill color="#CCCCFF" transparent="false"/>
          <y:BorderStyle color="#000000" type="line" width="1.0"/>
          <y:NodeLabel alignment="center" autoSizePolicy="content" fontFamily="Dialog" fontSize="12" fontStyle="plain" hasBackgroundColor="false" hasLineColor="false" hasText="false" height="4.0" horizontalTextPosition="center" iconTextGap="4" modelName="sandwich" modelPosition="s" textColor="#000000" verticalTextPosition="bottom" visible="true" width="4.0" x="2.0" y="12.0"/>
          <y:Image alphaImage="true" refid="10"/>
        </y:ImageNode>
      </data>
    </node>
    <node id="n10">
      <data key="d6">
        <y:ImageNode>
          <y:Geometry height="16.0" width="16.0" x="1162.0" y="472.9999999999999"/>
          <y:Fill color="#CCCCFF" transparent="false"/>
          <y:BorderStyle color="#000000" type="line" width="1.0"/>
          <y:NodeLabel alignment="center" autoSizePolicy="content" fontFamily="Dialog" fontSize="12" fontStyle="plain" hasBackgroundColor="false" hasLineColor="false" hasText="false" height="4.0" horizontalTextPosition="center" iconTextGap="4" modelName="sandwich" modelPosition="s" textColor="#000000" verticalTextPosition="bottom" visible="true" width="4.0" x="6.0" y="20.0"/>
          <y:Image refid="11"/>
        </y:ImageNode>
      </data>
    </node>
  </graph>
  <data key="d7">
    <y:Resources>
      <y:Resource id="1" type="java.awt.image.BufferedImage" xml:space="preserve">iVBORw0KGgoAAAANSUhEUgAAABAAAAAQCAYAAAAf8/9hAAAAYUlEQVR4XmNgGAXEgv/oAoQAWMPR&#13;
cun/ILx6lRUYoyvCCuY0Rv+fbCwDx8gGgOTQ1aOAgwsKwIqQDYBphhmA1xCQATBDsGGYHLo+OIAZ&#13;
gA/jNQAE0DWQpBkG0DWSpHkEAgBDmpFyDzbTWQAAAABJRU5ErkJggg==</y:Resource>
      <y:Resource id="2" type="java.awt.image.BufferedImage" xml:space="preserve">iVBORw0KGgoAAAANSUhEUgAAABAAAAAQCAYAAAAf8/9hAAAAWUlEQVR4XmNgGAXEgv/oAsSA/x8n&#13;
KYLxvbveYIyuACuY0xj9/5GUFBwjGwCSQ1ePAkAK0A2AaYYZgNcQmAJkQ9A1E20APoyuDwWgK0bH&#13;
6OqxAnRNJGkegQAARVyOeaTxQSAAAAAASUVORK5CYII=</y:Resource>
      <y:Resource id="3" type="java.awt.image.BufferedImage" xml:space="preserve">iVBORw0KGgoAAAANSUhEUgAAABAAAAAQCAYAAAAf8/9hAAAAUklEQVR4Xt2PUQoAIAhDO5iH9aaF&#13;
gTBMxeqrHgxEtomt/Q0zd5Hdp2AomlPUGMn6XdRMRFPlMF6SoO6xJC26LlCwZOsFAS95sv4FNEZz&#13;
maPQewzQcKLl2jl7QAAAAABJRU5ErkJggg==</y:Resource>
      <y:Resource id="4" type="java.awt.image.BufferedImage" xml:space="preserve">iVBORw0KGgoAAAANSUhEUgAAABAAAAAQCAYAAAAf8/9hAAAATUlEQVR4XmNgoAf4f4/hP7oY0QCk&#13;
mWwDYJr/ryPDAMo0r4NqJscA6mnGhfEZiqEYG8ZnADZAPS+RqhkE4AbQXTMIgA0gVzMIUKSZFAAA&#13;
Y8eWqSI3K8gAAAAASUVORK5CYII=</y:Resource>
      <y:Resource id="5" type="java.awt.image.BufferedImage" xml:space="preserve">iVBORw0KGgoAAAANSUhEUgAAAAgAAAAICAYAAADED76LAAAAJklEQVR4XmNgQAP/7zH8RxeDA5Dk&#13;
/3U4FBCWRMd4FVNfEgRwSQIA3OQyKdHAMk8AAAAASUVORK5CYII=</y:Resource>
      <y:Resource id="6" type="java.awt.image.BufferedImage" xml:space="preserve">iVBORw0KGgoAAAANSUhEUgAAAAgAAAAICAYAAADED76LAAAAPklEQVR4XmNgIBP8RxcAgf8fJymC&#13;
8b273mAMFp3TGP3/kZQUHCMrAMmBFSArQpZEUYALw63BhpEdiKEIJg4ApsRhlxtfCC4AAAAASUVO&#13;
RK5CYII=</y:Resource>
      <y:Resource id="7" type="java.awt.image.BufferedImage" xml:space="preserve">iVBORw0KGgoAAAANSUhEUgAAAAgAAAAICAYAAADED76LAAAANklEQVR4XmNgQAILFiz4D8LIYigS&#13;
6BhDgY2NDRijKECWhGlAUURQAbopGJLICtAxXAG6QmQxAEseaXmDK4RMAAAAAElFTkSuQmCC</y:Resource>
      <y:Resource id="8" type="java.awt.image.BufferedImage" xml:space="preserve">iVBORw0KGgoAAAANSUhEUgAAAAgAAAAICAYAAADED76LAAAAJklEQVR4XmNgQANr1679jy4GByDJ&#13;
5uZm7AoISqJjvIppIAkCuCQBar8y+9HXxw8AAAAASUVORK5CYII=</y:Resource>
      <y:Resource id="9" type="java.awt.image.BufferedImage" xml:space="preserve">iVBORw0KGgoAAAANSUhEUgAAAAgAAAAICAYAAADED76LAAAAPUlEQVR4XmNgIBP8RxcAgf/d3d1g&#13;
vHjxYjAGi9bW1v7PysqCY2QFIDmwAmRFyJIoCnBhuDXYMLIDMRTBxAGXTWGQHizxqwAAAABJRU5E&#13;
rkJggg==</y:Resource>
      <y:Resource id="10" type="java.awt.image.BufferedImage" xml:space="preserve">iVBORw0KGgoAAAANSUhEUgAAAAgAAAAICAYAAADED76LAAAANklEQVR4XmNgQAJGRkb/QRhZDEUC&#13;
HWMoEBYWBmMUBciSMA0oiggqQDcFQxJZATqGK0BXiCwGAPLKPGFZB4cEAAAAAElFTkSuQmCC</y:Resource>
      <y:Resource id="11" type="java.awt.image.BufferedImage" xml:space="preserve">iVBORw0KGgoAAAANSUhEUgAAABAAAAAQCAYAAAAf8/9hAAAAY0lEQVR4Xs2QwQnAQAgEbS39pJh8&#13;
U63BwB4i0dVXbmBfh3OrIntxqb7J0FPlPvL3JfCxIZ+2INISGFUDOgxii9Ew8C3Gw4b9Wt2kBDuD&#13;
kQT7WmILKmHHopL4+1eDliCDCv7gAd/Ep2U5BsK6AAAAAElFTkSuQmCC</y:Resource>
    </y:Resources>
  </data>
</graphml>
