%YAML 1.1
%TAG !u! tag:unity3d.com,2011:
--- !u!114 &11400000
MonoBehaviour:
  m_ObjectHideFlags: 0
  m_CorrespondingSourceObject: {fileID: 0}
  m_PrefabInstance: {fileID: 0}
  m_PrefabAsset: {fileID: 0}
  m_GameObject: {fileID: 0}
  m_Enabled: 1
  m_EditorHideFlags: 0
  m_Script: {fileID: 11500000, guid: b974cc365283cea47b667508d6abc3a7, type: 3}
  m_Name: Item_Stone_Sample Building 2
  m_EditorClassIdentifier: 
  ItemCat: 2
  ItemID: 3
  ItemName: Sample Building 2
  age: 0
  Buyable: 1
  Movable: 0
  Demolishable: 1
  CanAttack: 0
  Tiers:
  - {fileID: 11400000, guid: 97d232f325e871c4ba618e03aa9e0f15, type: 2}
  - {fileID: 11400000, guid: 70c981a5e8c21964d8ed507111a2e31b, type: 2}
