%YAML 1.1
%TAG !u! tag:unity3d.com,2011:
--- !u!114 &11400000
MonoBehaviour:
  m_ObjectHideFlags: 0
  m_CorrespondingSourceObject: {fileID: 0}
  m_PrefabInstance: {fileID: 0}
  m_PrefabAsset: {fileID: 0}
  m_GameObject: {fileID: 0}
  m_Enabled: 1
  m_EditorHideFlags: 0
  m_Script: {fileID: 11500000, guid: 9cfa93ad4f0488d4994f17023a690e0e, type: 3}
  m_Name: Item_Stone_Sample_Tier1
  m_EditorClassIdentifier: 
  Sprites: {fileID: 0}
  Cost: 0
  Health: 100
  Defence: 0
  NodeNeedTypes: 
  NodeNeedValues: []
  CraftedNeedTypes: 
  CraftedNeedValues: []
  ProductionTypes: 
  ProductionValues: []
  PollutionAmount: 0
  ElectricityCapacity: 0
  AttackRange: 0
  AttackPower: 0
  attackTiming: {fileID: 0}
